eligible(X) :-
    highGPA(X),
    student(X).

eligible(X) :-
    minority(X),
    fairGPA(X),
    student(X).

aux__NEG_eligible(X) :-
    aux__NEG_fairGPA(X),
    aux__NEG_highGPA(X),
    student(X).

interview(X) :-
    aux__NOT_K_eligible(X),
    aux__NOT_K_NEG_eligible(X),
    student(X).

student("Mike").

fairGPA("Mike") |
highGPA("Mike").

:-
    not aux__NOT_K_eligible("Mike"), eligible("Mike").

:-
    not aux__NOT_K_NEG_eligible("Mike"), aux__NEG_eligible("Mike").

:-
    eligible(X),
    aux__NEG_eligible(X).

:-
    fairGPA(X),
    aux__NEG_fairGPA(X).

:-
    highGPA(X),
    aux__NEG_highGPA(X).

aux__NOT_K_eligible(X) :-
    aux__IN(aux__NOT_K_eligible(X)).

aux__NOT_K_eligible(X) :-
    aux__OUT(aux__NOT_K_eligible(X)),
    not eligible(X).

aux__NOT_K_NEG_eligible(X) :-
    aux__IN(aux__NOT_K_NEG_eligible(X)).

aux__NOT_K_NEG_eligible(X) :-
    aux__OUT(aux__NOT_K_NEG_eligible(X)),
    not aux__NEG_eligible(X).

aux__NOT_K_eligible("Mike") :-
    aux__IN(aux__NOT_K_eligible("Mike")).

aux__NOT_K_eligible("Mike") :-
    aux__OUT(aux__NOT_K_eligible("Mike")),
    not eligible("Mike").

aux__NOT_K_NEG_eligible("Mike") :-
    aux__IN(aux__NOT_K_NEG_eligible("Mike")).

aux__NOT_K_NEG_eligible("Mike") :-
    aux__OUT(aux__NOT_K_NEG_eligible("Mike")),
    not aux__NEG_eligible("Mike").